…
This is the sf layout helper. It requires the \`sf\` package (an
optional dependency); for the sf-free default, build a layout with
\[position_brain()\] and pass it to \[geom_brain()\].

## Examples

``` r
reposition_brain(dk(), hemi ~ view)
#> Simple feature collection with 191 features and 8 fields
#> Geometry type: MULTIPOLYGON
#> Dimension:     XY
#> Bounding box:  xmin: -29.07095 ymin: -29.07095 xmax: 2936.166 ymax: 974.9328
#> CRS:           NA
#> # A tibble: 191 × 9
#>    label   view  hemi  region lobe                   geometry atlas type  colour
#>  * <chr>   <chr> <chr> <chr>  <chr>            <MULTIPOLYGON> <chr> <chr> <chr> 
#>  1 lh_unk… infe… left  NA     NA    (((283.0321 93.76352, 43… dk    cort… NA    
#>  2 lh_ban… infe… left  banks… temp… (((450.3846 295.7177, 47… dk    cort… #1964…
#>  3 lh_cau… infe… left  cauda… fron… (((188.6943 302.0361, 18… dk    cort… #6419…
#>  4 lh_cor… infe… left  corpu… whit… (((402.2002 121.1967, 40… dk    cort… #7846…
#>  5 lh_ent… infe… left  entor… temp… (((274.1602 156.9255, 31… dk    cort… #DC14…
#>  6 lh_fro… infe… left  front… fron… (((17.16195 122.8896, 26… dk    cort… #6400…
#>  7 lh_fus… infe… left  fusif… temp… (((559.6909 157.8355, 56… dk    cort… #B4DC…
#>  8 lh_inf… infe… left  infer… pari… (((467.6347 325.1216, 46… dk    cort… #DC3C…
#>  9 lh_inf… infe… left  infer… temp… (((245.822 185.0794, 255… dk    cort… #B428…
#> 10 lh_ins… infe… left  insula insu… (((181.2922 169.843, 191… dk    cort… #FFC0…
#> # ℹ 181 more rows
reposition_brain(dk(), view ~ hemi)
#> Simple feature collection with 191 features and 8 fields
#> Geometry type: MULTIPOLYGON
#> Dimension:     XY
#> Bounding box:  xmin: -19.19707 ymin: -19.19707 xmax: 1409.547 ymax: 1938.904
#> CRS:           NA
#> # A tibble: 191 × 9
#>    label   view  hemi  region lobe                   geometry atlas type  colour
#>  * <chr>   <chr> <chr> <chr>  <chr>            <MULTIPOLYGON> <chr> <chr> <chr> 
#>  1 lh_unk… infe… left  NA     NA    (((283.0321 93.76352, 43… dk    cort… NA    
#>  2 lh_ban… infe… left  banks… temp… (((450.3846 295.7177, 47… dk    cort… #1964…
#>  3 lh_cau… infe… left  cauda… fron… (((188.6943 302.0361, 18… dk    cort… #6419…
#>  4 lh_cor… infe… left  corpu… whit… (((402.2002 121.1967, 40… dk    cort… #7846…
#>  5 lh_ent… infe… left  entor… temp… (((274.1602 156.9255, 31… dk    cort… #DC14…
#>  6 lh_fro… infe… left  front… fron… (((17.16195 122.8896, 26… dk    cort… #6400…
#>  7 lh_fus… infe… left  fusif… temp… (((559.6909 157.8355, 56… dk    cort… #B4DC…
#>  8 lh_inf… infe… left  infer… pari… (((467.6347 325.1216, 46… dk    cort… #DC3C…
#>  9 lh_inf… infe… left  infer… temp… (((245.822 185.0794, 255… dk    cort… #B428…
#> 10 lh_ins… infe… left  insula insu… (((181.2922 169.843, 191… dk    cort… #FFC0…
#> # ℹ 181 more rows
reposition_brain(dk(), hemi + view ~ .)
#> Simple feature collection with 191 features and 8 fields
#> Geometry type: MULTIPOLYGON
#> Dimension:     XY
#> Bounding box:  xmin: -39.83406 ymin: -39.83406 xmax: 671.8112 ymax: 4023.24
#> CRS:           NA
#> # A tibble: 191 × 9
#>    label   view  hemi  region lobe                   geometry atlas type  colour
#>  * <chr>   <chr> <chr> <chr>  <chr>            <MULTIPOLYGON> <chr> <chr> <chr> 
#>  1 lh_unk… infe… left  NA     NA    (((283.0321 93.76352, 43… dk    cort… NA    
#>  2 lh_ban… infe… left  banks… temp… (((450.3846 295.7177, 47… dk    cort… #1964…
#>  3 lh_cau… infe… left  cauda… fron… (((188.6943 302.0361, 18… dk    cort… #6419…
#>  4 lh_cor… infe… left  corpu… whit… (((402.2002 121.1967, 40… dk    cort… #7846…
#>  5 lh_ent… infe… left  entor… temp… (((274.1602 156.9255, 31… dk    cort… #DC14…
#>  6 lh_fro… infe… left  front… fron… (((17.16195 122.8896, 26… dk    cort… #6400…
#>  7 lh_fus… infe… left  fusif… temp… (((559.6909 157.8355, 56… dk    cort… #B4DC…
#>  8 lh_inf… infe… left  infer… pari… (((467.6347 325.1216, 46… dk    cort… #DC3C…
#>  9 lh_inf… infe… left  infer… temp… (((245.822 185.0794, 255… dk    cort… #B428…
#> 10 lh_ins… infe… left  insula insu… (((181.2922 169.843, 191… dk    cort… #FFC0…
#> # ℹ 181 more rows
reposition_brain(dk(), . ~ hemi + view)
#> Simple feature collection with 191 features and 8 fields
#> Geometry type: MULTIPOLYGON
#> Dimension:     XY
#> Bounding box:  xmin: -59.40585 ymin: -59.40585 xmax: 5999.991 ymax: 489.3431
#> CRS:           NA
#> # A tibble: 191 × 9
#>    label   view  hemi  region lobe                   geometry atlas type  colour
#>  * <chr>   <chr> <chr> <chr>  <chr>            <MULTIPOLYGON> <chr> <chr> <chr> 
#>  1 lh_unk… infe… left  NA     NA    (((283.0321 93.76352, 43… dk    cort… NA    
#>  2 lh_ban… infe… left  banks… temp… (((450.3846 295.7177, 47… dk    cort… #1964…
#>  3 lh_cau… infe… left  cauda… fron… (((188.6943 302.0361, 18… dk    cort… #6419…
#>  4 lh_cor… infe… left  corpu… whit… (((402.2002 121.1967, 40… dk    cort… #7846…
#>  5 lh_ent… infe… left  entor… temp… (((274.1602 156.9255, 31… dk    cort… #DC14…
#>  6 lh_fro… infe… left  front… fron… (((17.16195 122.8896, 26… dk    cort… #6400…
#>  7 lh_fus… infe… left  fusif… temp… (((559.6909 157.8355, 56… dk    cort… #B4DC…
#>  8 lh_inf… infe… left  infer… pari… (((467.6347 325.1216, 46… dk    cort… #DC3C…
#>  9 lh_inf… infe… left  infer… temp… (((245.822 185.0794, 255… dk    cort… #B428…
#> 10 lh_ins… infe… left  insula insu… (((181.2922 169.843, 191… dk    cort… #FFC0…
#> # ℹ 181 more rows
…
